(kicad_sch (version 20211123) (generator eeschema)

  (uuid 784e200b-3d70-45ec-a7fe-4540140a771c)

  (paper "A4")

  (title_block
    (title "Shoulder Button Daughter PCB for SNES Controller")
    (date "2022-10-23")
    (rev "2")
    (comment 1 "http://creativecommons.org/licenses/by-sa/4.0")
    (comment 2 "Attribution-ShareAlike v4.0 license.")
    (comment 3 "This document describes Open Hardware and is licensed under the Creative Commons")
    (comment 4 "(c) 2022 Bob Taylor")
  )

  (lib_symbols
    (symbol "Mechanical:MountingHole_Pad" (pin_numbers hide) (pin_names (offset 1.016) hide) (in_bom yes) (on_board yes)
      (property "Reference" "H" (id 0) (at 0 6.35 0)
        (effects (font (size 1.27 1.27)))
      )
      (property "Value" "MountingHole_Pad" (id 1) (at 0 4.445 0)
        (effects (font (size 1.27 1.27)))
      )
      (property "Footprint" "" (id 2) (at 0 0 0)
        (effects (font (size 1.27 1.27)) hide)
      )
      (property "Datasheet" "~" (id 3) (at 0 0 0)
        (effects (font (size 1.27 1.27)) hide)
      )
      (property "ki_keywords" "mounting hole" (id 4) (at 0 0 0)
        (effects (font (size 1.27 1.27)) hide)
      )
      (property "ki_description" "Mounting Hole with connection" (id 5) (at 0 0 0)
        (effects (font (size 1.27 1.27)) hide)
      )
      (property "ki_fp_filters" "MountingHole*Pad*" (id 6) (at 0 0 0)
        (effects (font (size 1.27 1.27)) hide)
      )
      (symbol "MountingHole_Pad_0_1"
        (circle (center 0 1.27) (radius 1.27)
          (stroke (width 1.27) (type default) (color 0 0 0 0))
          (fill (type none))
        )
      )
      (symbol "MountingHole_Pad_1_1"
        (pin input line (at 0 -2.54 90) (length 2.54)
          (name "1" (effects (font (size 1.27 1.27))))
          (number "1" (effects (font (size 1.27 1.27))))
        )
      )
    )
    (symbol "sw_push_snes_btn:SW_SNES_Btn" (pin_numbers hide) (pin_names (offset 1.016) hide) (in_bom yes) (on_board yes)
      (property "Reference" "SW" (id 0) (at 1.27 2.54 0)
        (effects (font (size 1.27 1.27)) (justify left))
      )
      (property "Value" "SW_SNES_Btn" (id 1) (at 0 -1.524 0)
        (effects (font (size 1.27 1.27)))
      )
      (property "Footprint" "Contact_Button:SNES_BTN_5mm_0.3_0.3" (id 2) (at 0 5.08 0)
        (effects (font (size 1.27 1.27)) hide)
      )
      (property "Datasheet" "~" (id 3) (at 0 5.08 0)
        (effects (font (size 1.27 1.27)) hide)
      )
      (property "ki_keywords" "switch normally-open pushbutton push-button" (id 4) (at 0 0 0)
        (effects (font (size 1.27 1.27)) hide)
      )
      (property "ki_description" "SNES controller contact button" (id 5) (at 0 0 0)
        (effects (font (size 1.27 1.27)) hide)
      )
      (symbol "SW_SNES_Btn_0_1"
        (circle (center -2.032 0) (radius 0.508)
          (stroke (width 0) (type default) (color 0 0 0 0))
          (fill (type none))
        )
        (polyline
          (pts
            (xy 0 1.27)
            (xy 0 3.048)
          )
          (stroke (width 0) (type default) (color 0 0 0 0))
          (fill (type none))
        )
        (polyline
          (pts
            (xy 2.54 1.27)
            (xy -2.54 1.27)
          )
          (stroke (width 0) (type default) (color 0 0 0 0))
          (fill (type none))
        )
        (circle (center 2.032 0) (radius 0.508)
          (stroke (width 0) (type default) (color 0 0 0 0))
          (fill (type none))
        )
        (pin passive line (at -5.08 0 0) (length 2.54)
          (name "1" (effects (font (size 1.27 1.27))))
          (number "1" (effects (font (size 1.27 1.27))))
        )
        (pin passive line (at 5.08 0 180) (length 2.54)
          (name "2" (effects (font (size 1.27 1.27))))
          (number "2" (effects (font (size 1.27 1.27))))
        )
      )
    )
  )


  (wire (pts (xy 140.97 88.9) (xy 149.86 88.9))
    (stroke (width 0) (type default) (color 0 0 0 0))
    (uuid 277be046-df94-4802-ad13-130dac55750a)
  )
  (wire (pts (xy 120.65 88.9) (xy 130.81 88.9))
    (stroke (width 0) (type default) (color 0 0 0 0))
    (uuid e46262f8-3f36-4b7a-98ad-85ca3300a022)
  )

  (symbol (lib_id "sw_push_snes_btn:SW_SNES_Btn") (at 135.89 88.9 0) (unit 1)
    (in_bom yes) (on_board yes)
    (uuid 3006482a-fed2-470e-be0b-a342dc39d87b)
    (property "Reference" "SW1" (id 0) (at 135.89 81.28 0))
    (property "Value" "SW_SNES_Btn" (id 1) (at 135.89 83.82 0))
    (property "Footprint" "Ninendo:SNES_BTN_5mm_0.3_0.3" (id 2) (at 135.89 83.82 0)
      (effects (font (size 1.27 1.27)) hide)
    )
    (property "Datasheet" "~" (id 3) (at 135.89 83.82 0)
      (effects (font (size 1.27 1.27)) hide)
    )
    (pin "1" (uuid 6d4a678a-b1b9-478f-9387-61db1644109d))
    (pin "2" (uuid f6c61186-2199-4604-9c31-7b85cf0e4d0b))
  )

  (symbol (lib_id "Mechanical:MountingHole_Pad") (at 152.4 88.9 270) (unit 1)
    (in_bom yes) (on_board yes) (fields_autoplaced)
    (uuid 475b3a4a-9024-453f-81eb-349c585a221b)
    (property "Reference" "H2" (id 0) (at 156.21 87.6299 90)
      (effects (font (size 1.27 1.27)) (justify left))
    )
    (property "Value" "MountingHole_Pad" (id 1) (at 156.21 90.1699 90)
      (effects (font (size 1.27 1.27)) (justify left))
    )
    (property "Footprint" "MountingHole:MountingHole_1.2mm_Pad" (id 2) (at 152.4 88.9 0)
      (effects (font (size 1.27 1.27)) hide)
    )
    (property "Datasheet" "~" (id 3) (at 152.4 88.9 0)
      (effects (font (size 1.27 1.27)) hide)
    )
    (pin "1" (uuid 5c139f6d-6953-46c4-baac-9709c69dd9df))
  )

  (symbol (lib_id "Mechanical:MountingHole_Pad") (at 118.11 88.9 90) (unit 1)
    (in_bom yes) (on_board yes) (fields_autoplaced)
    (uuid aee49b2e-4ef3-4765-af1c-57d032b1392b)
    (property "Reference" "H1" (id 0) (at 116.84 81.28 90))
    (property "Value" "MountingHole_Pad" (id 1) (at 116.84 83.82 90))
    (property "Footprint" "MountingHole:MountingHole_1.2mm_Pad" (id 2) (at 118.11 88.9 0)
      (effects (font (size 1.27 1.27)) hide)
    )
    (property "Datasheet" "~" (id 3) (at 118.11 88.9 0)
      (effects (font (size 1.27 1.27)) hide)
    )
    (pin "1" (uuid ec9408d5-65d8-4d8c-8e5d-083c5067a9e7))
  )

  (sheet_instances
    (path "/" (page "1"))
  )

  (symbol_instances
    (path "/aee49b2e-4ef3-4765-af1c-57d032b1392b"
      (reference "H1") (unit 1) (value "MountingHole_Pad") (footprint "MountingHole:MountingHole_1.2mm_Pad")
    )
    (path "/475b3a4a-9024-453f-81eb-349c585a221b"
      (reference "H2") (unit 1) (value "MountingHole_Pad") (footprint "MountingHole:MountingHole_1.2mm_Pad")
    )
    (path "/3006482a-fed2-470e-be0b-a342dc39d87b"
      (reference "SW1") (unit 1) (value "SW_SNES_Btn") (footprint "Ninendo:SNES_BTN_5mm_0.3_0.3")
    )
  )
)
